%YAML 1.1
%TAG !u! tag:unity3d.com,2011:
--- !u!114 &11400000
MonoBehaviour:
  m_ObjectHideFlags: 0
  m_PrefabParentObject: {fileID: 0}
  m_PrefabInternal: {fileID: 0}
  m_GameObject: {fileID: 0}
  m_Enabled: 1
  m_EditorHideFlags: 0
  m_Script: {fileID: 11500000, guid: de479356936f30249a9ca0dde7be3de8, type: 3}
  m_Name: BuildingsSettings
  m_EditorClassIdentifier: UnityEngine:UnityEngine:ScriptableObject
  _buildingsSettingsInfo:
  - _nameLocalKey: game.main.building.icearena
    descriptionLocaleKey: game.main.building.icearena.desc
    _previews:
    - {fileID: 21300032, guid: cec459cbf39b71543830d86a078fef24, type: 3}
    - {fileID: 21300070, guid: cec459cbf39b71543830d86a078fef24, type: 3}
    - {fileID: 21300108, guid: cec459cbf39b71543830d86a078fef24, type: 3}
    _type: 0
  - _nameLocalKey: game.main.building.shop
    descriptionLocaleKey: game.main.building.shop.desc
    _previews:
    - {fileID: 21300042, guid: cec459cbf39b71543830d86a078fef24, type: 3}
    - {fileID: 21300080, guid: cec459cbf39b71543830d86a078fef24, type: 3}
    - {fileID: 21300118, guid: cec459cbf39b71543830d86a078fef24, type: 3}
    _type: 1
  - _nameLocalKey: game.main.building.cashbox
    descriptionLocaleKey: game.main.building.cashbox.desc
    _previews:
    - {fileID: 21300024, guid: cec459cbf39b71543830d86a078fef24, type: 3}
    - {fileID: 21300062, guid: cec459cbf39b71543830d86a078fef24, type: 3}
    - {fileID: 21300100, guid: cec459cbf39b71543830d86a078fef24, type: 3}
    _type: 2
  - _nameLocalKey: game.main.building.base
    descriptionLocaleKey: game.main.building.base.desc
    _previews:
    - {fileID: 21300018, guid: cec459cbf39b71543830d86a078fef24, type: 3}
    - {fileID: 21300056, guid: cec459cbf39b71543830d86a078fef24, type: 3}
    - {fileID: 21300094, guid: cec459cbf39b71543830d86a078fef24, type: 3}
    _type: 3
  - _nameLocalKey: game.main.building.halloffame
    descriptionLocaleKey: game.main.building.halloffame.desc
    _previews:
    - {fileID: 21300028, guid: cec459cbf39b71543830d86a078fef24, type: 3}
    - {fileID: 21300066, guid: cec459cbf39b71543830d86a078fef24, type: 3}
    - {fileID: 21300104, guid: cec459cbf39b71543830d86a078fef24, type: 3}
    _type: 4
  - _nameLocalKey: game.main.building.bank
    descriptionLocaleKey: game.main.building.bank.desc
    _previews:
    - {fileID: 21300014, guid: cec459cbf39b71543830d86a078fef24, type: 3}
    - {fileID: 21300052, guid: cec459cbf39b71543830d86a078fef24, type: 3}
    - {fileID: 21300090, guid: cec459cbf39b71543830d86a078fef24, type: 3}
    _type: 5
  - _nameLocalKey: game.main.building.kiosk
    descriptionLocaleKey: game.main.building.kiosk.desc
    _previews:
    - {fileID: 21300038, guid: cec459cbf39b71543830d86a078fef24, type: 3}
    - {fileID: 21300076, guid: cec459cbf39b71543830d86a078fef24, type: 3}
    - {fileID: 21300114, guid: cec459cbf39b71543830d86a078fef24, type: 3}
    _type: 6
  - _nameLocalKey: game.main.building.adbanner
    descriptionLocaleKey: game.main.building.adbanner.desc
    _previews:
    - {fileID: 21300010, guid: cec459cbf39b71543830d86a078fef24, type: 3}
    - {fileID: 21300048, guid: cec459cbf39b71543830d86a078fef24, type: 3}
    - {fileID: 21300086, guid: cec459cbf39b71543830d86a078fef24, type: 3}
    _type: 7
  buildingCaptionPrefab: {fileID: 1000014206776744, guid: ea637595e30e13b4fa8afd51b9d7891f,
    type: 2}
  buildingProgressPrefab: {fileID: 1000014189226380, guid: 5f7f7c4dfa4c2604f999fa7126875359,
    type: 2}
