%YAML 1.1
%TAG !u! tag:unity3d.com,2011:
--- !u!114 &11400000
MonoBehaviour:
  m_ObjectHideFlags: 0
  m_PrefabParentObject: {fileID: 0}
  m_PrefabInternal: {fileID: 0}
  m_GameObject: {fileID: 0}
  m_Enabled: 1
  m_EditorHideFlags: 0
  m_Script: {fileID: 2019389346, guid: b5bd0d848a86e48409fe56688d66ecb5, type: 3}
  m_Name: TMP_icons
  m_EditorClassIdentifier: 
  hashCode: -276110450
  material: {fileID: 21984636953556118}
  materialHashCode: 0
  spriteSheet: {fileID: 2800000, guid: 7d08a2574ba14a046a27cff5b48588b2, type: 3}
  spriteInfoList:
  - id: 0
    x: 68
    y: 18
    width: 64
    height: 64
    xOffset: -32
    yOffset: 32
    xAdvance: 64
    scale: 1
    name: "\u044D\u043D\u0435\u0440\u0433\u0438\u044F"
    hashCode: -1076882015
    unicode: 0
    pivot: {x: -32, y: 32}
    sprite: {fileID: 21300022, guid: 7d08a2574ba14a046a27cff5b48588b2, type: 3}
  - id: 1
    x: 1
    y: 84
    width: 62
    height: 64
    xOffset: 0
    yOffset: 55
    xAdvance: 62
    scale: 1
    name: gold
    hashCode: 3668640
    unicode: 0
    pivot: {x: -31, y: 32}
    sprite: {fileID: 21300012, guid: 7d08a2574ba14a046a27cff5b48588b2, type: 3}
  - id: 2
    x: 1
    y: 215
    width: 68
    height: 64
    xOffset: 0
    yOffset: 55
    xAdvance: 68
    scale: 1
    name: coin
    hashCode: 3533451
    unicode: 0
    pivot: {x: -33.5, y: 32}
    sprite: {fileID: 21300006, guid: 7d08a2574ba14a046a27cff5b48588b2, type: 3}
  - id: 3
    x: 131
    y: 333
    width: 64
    height: 51
    xOffset: -32
    yOffset: 25.000002
    xAdvance: 64
    scale: 1
    name: bolel
    hashCode: 117649064
    unicode: 0
    pivot: {x: -32, y: 25.000002}
    sprite: {fileID: 21300004, guid: 7d08a2574ba14a046a27cff5b48588b2, type: 3}
  - id: 4
    x: 1
    y: 22
    width: 65
    height: 60
    xOffset: 0
    yOffset: 55
    xAdvance: 66
    scale: 1
    name: "\u043E\u043F\u044B\u0442"
    hashCode: 40041640
    unicode: 0
    pivot: {x: -32.5, y: 30}
    sprite: {fileID: 21300020, guid: 7d08a2574ba14a046a27cff5b48588b2, type: 3}
  - id: 5
    x: 1
    y: 281
    width: 128
    height: 103
    xOffset: -64
    yOffset: 51.5
    xAdvance: 128
    scale: 1
    name: Attack
    hashCode: -1840967896
    unicode: 0
    pivot: {x: -64, y: 51.5}
    sprite: {fileID: 21300002, guid: 7d08a2574ba14a046a27cff5b48588b2, type: 3}
  - id: 6
    x: 71
    y: 150
    width: 128
    height: 129
    xOffset: -64
    yOffset: 64.5
    xAdvance: 128
    scale: 1
    name: Defense
    hashCode: 523218938
    unicode: 0
    pivot: {x: -64, y: 64.5}
    sprite: {fileID: 21300008, guid: 7d08a2574ba14a046a27cff5b48588b2, type: 3}
  - id: 7
    x: 131
    y: 102
    width: 60
    height: 46
    xOffset: -29
    yOffset: 22.5
    xAdvance: 60
    scale: 1
    name: Scored
    hashCode: -1012861044
    unicode: 0
    pivot: {x: -29, y: 22.5}
    sprite: {fileID: 21300016, guid: 7d08a2574ba14a046a27cff5b48588b2, type: 3}
  - id: 8
    x: 1
    y: 386
    width: 125
    height: 125
    xOffset: -63
    yOffset: 63
    xAdvance: 125
    scale: 1
    name: ataka_liderbord
    hashCode: -498268852
    unicode: 0
    pivot: {x: -63, y: 63}
    sprite: {fileID: 21300000, guid: 7d08a2574ba14a046a27cff5b48588b2, type: 3}
  - id: 9
    x: 201
    y: 252
    width: 31
    height: 27
    xOffset: -18.5
    yOffset: 13.5
    xAdvance: 31
    scale: 1
    name: effekt
    hashCode: -231932961
    unicode: 0
    pivot: {x: -18.5, y: 13.5}
    sprite: {fileID: 21300010, guid: 7d08a2574ba14a046a27cff5b48588b2, type: 3}
  - id: 10
    x: 65
    y: 84
    width: 64
    height: 64
    xOffset: 0
    yOffset: 55
    xAdvance: 64
    scale: 1
    name: icon-edit
    hashCode: -1778045606
    unicode: 0
    pivot: {x: -32, y: 32}
    sprite: {fileID: 21300014, guid: 7d08a2574ba14a046a27cff5b48588b2, type: 3}
  - id: 11
    x: 193
    y: 84
    width: 60
    height: 64
    xOffset: 0
    yOffset: 55
    xAdvance: 64
    scale: 1
    name: time
    hashCode: 4074549
    unicode: 0
    pivot: {x: -31, y: 32}
    sprite: {fileID: 21300018, guid: 7d08a2574ba14a046a27cff5b48588b2, type: 3}
  fallbackSpriteAssets: []
--- !u!21 &21984636953556118
Material:
  serializedVersion: 6
  m_ObjectHideFlags: 1
  m_PrefabParentObject: {fileID: 0}
  m_PrefabInternal: {fileID: 0}
  m_Name: TextMeshPro/Sprite
  m_Shader: {fileID: 4800000, guid: 3a1c68c8292caf046bd21158886c5e40, type: 3}
  m_ShaderKeywords: 
  m_LightmapFlags: 5
  m_CustomRenderQueue: -1
  stringTagMap: {}
  m_SavedProperties:
    serializedVersion: 2
    m_TexEnvs:
    - first:
        name: _MainTex
      second:
        m_Texture: {fileID: 2800000, guid: 7d08a2574ba14a046a27cff5b48588b2, type: 3}
        m_Scale: {x: 1, y: 1}
        m_Offset: {x: 0, y: 0}
    m_Floats:
    - first:
        name: _ColorMask
      second: 15
    - first:
        name: _Stencil
      second: 0
    - first:
        name: _StencilComp
      second: 8
    - first:
        name: _StencilOp
      second: 0
    - first:
        name: _StencilReadMask
      second: 255
    - first:
        name: _StencilWriteMask
      second: 255
    - first:
        name: _UseUIAlphaClip
      second: 0
    m_Colors:
    - first:
        name: _ClipRect
      second: {r: -32767, g: -32767, b: 32767, a: 32767}
    - first:
        name: _Color
      second: {r: 1, g: 1, b: 1, a: 1}
